<?xml version="1.0" encoding="utf-8"?>
<!-- Generator: Adobe Illustrator 16.0.0, SVG Export Plug-In . SVG Version: 6.00 Build 0)  -->
<!DOCTYPE svg PUBLIC "-//W3C//DTD SVG 1.1//EN" "http://www.w3.org/Graphics/SVG/1.1/DTD/svg11.dtd">
<svg version="1.1" id="Layer_1" xmlns="http://www.w3.org/2000/svg" xmlns:xlink="http://www.w3.org/1999/xlink" x="0px" y="0px"
	 width="373px" height="339px" viewBox="0 0 373 339" enable-background="new 0 0 373 339" xml:space="preserve">
<g>
	<path fill="#FFFFFF" d="M326.359,32c-4.082-12.242-16.32-20.403-28.559-20.403H73.398c-14.277,0-24.476,8.161-28.558,20.403
		L2,154.398v163.199C2,329.842,10.16,338,22.398,338h20.403c12.238,0,20.398-8.158,20.398-20.402v-20.398H308v20.398
		c0,12.244,8.16,20.402,20.398,20.402H348.8c12.238,0,20.398-8.158,20.398-20.402V154.398L326.359,32z M73.398,236
		c-16.32,0-30.597-14.279-30.597-30.604c0-16.318,14.277-30.596,30.597-30.596c16.321,0,30.602,14.273,30.602,30.596
		C104,221.721,89.719,236,73.398,236L73.398,236z M297.801,236c-16.32,0-30.602-14.279-30.602-30.604
		c0-16.318,14.281-30.596,30.602-30.596c16.321,0,30.598,14.273,30.598,30.596C328.398,221.721,314.121,236,297.801,236L297.801,236
		z M42.801,134L73.398,42.2h224.403L328.398,134H42.801z"/>
</g>
</svg>
